[{"humidity": 15, "temperature": 17, "timestamp": "2024-10-12-164507"},
{"humidity": 16, "temperature": 18, "timestamp": "2024-10-13-164507"},
{"humidity": 17, "temperature": 19, "timestamp": "2024-10-14-164507"},
{"humidity": 18, "temperature": 20, "timestamp": "2024-10-15-164507"},
{"humidity": 19, "temperature": 10, "timestamp": "2024-10-16-164507"},
{"humidity": 20, "temperature": 19, "timestamp": "2024-10-17-164507"},
{"humidity": 21, "temperature": 17, "timestamp": "2024-10-18-164507"},
{"humidity": 22, "temperature": 19, "timestamp": "2024-10-19-164507"},
{"humidity": 23, "temperature": 18, "timestamp": "2024-10-20-164507"},
{"humidity": 24, "temperature": 7, "timestamp": "2024-10-21-164507"},
{"humidity": 25, "temperature": 27, "timestamp": "2024-10-22-164507"},
{"humidity": 26, "temperature": 10, "timestamp": "2024-10-23-164507"}]